{
  "navigation": {
    "name": "bitbucketcloud",
    "title": "Bitbucket Cloud",
    "url": "/cloud/bitbucket",
    "categories": [
      {
        "title": "Guides",
        "indexLinkTitle": "Latest updates",
        "name": "devguide",
        "url": "/cloud/bitbucket/",
        "subcategories": [
          {
            "title": "Introduction and basics",
            "expandAlways": true,
            "name": "intro",
            "items": [
              {
                "title": "Integrating with Bitbucket Cloud",
                "url": "/cloud/bitbucket/integrating-with-bitbucket-cloud"
              },
              {
                "title": "Getting started",
                "url": "/cloud/bitbucket/getting-started"
              },
              {
                "title": "Frameworks and tools",
                "url": "/cloud/bitbucket/frameworks-and-tools"
              },
              {
                "title": "Install an app from your site",
                "url": "/cloud/bitbucket/install-an-app-from-your-site"
              }
            ]
          },
          {
            "title": "Security",
            "expandAlways": true,
            "name": "security",
            "items": [
              {
                "title": "Security overview",
                "url": "/cloud/bitbucket/security-overview"
              },
              {
                "title": "Understanding JWT for apps",
                "url": "/cloud/bitbucket/understanding-jwt-for-apps"
              },
              {
                "title": "Authentication for apps",
                "url": "/cloud/bitbucket/authentication-for-apps"
              },
              {
                "title": "OAuth 2.0",
                "url": "/cloud/bitbucket/oauth-2"
              },
              {
                "title": "Query string hash",
                "url": "/cloud/bitbucket/query-string-hash"
              }
            ]
          },
          {
            "title": "Learning",
            "expandAlways": true,
            "name": "guides",
            "items": [
              {
                "title": "Patterns and examples",
                "url": "/cloud/bitbucket/patterns-and-examples/"
              }
            ]
          },
          {
            "title": "Building blocks",
            "expandAlways": true,
            "name": "blocks",
            "items": [
              {
                "title": "App context",
                "url": "/cloud/bitbucket/app-context"
              },
              {
                "title": "App descriptor",
                "url": "/cloud/bitbucket/app-descriptor"
              },
              {
                "title": "Conditions",
                "url": "/cloud/bitbucket/conditions"
              },
              {
                "title": "Context parameters",
                "url": "/cloud/bitbucket/context-parameters"
              }
            ]
          },
          {
            "title": "Other considerations",
            "expandAlways": true,
            "name": "other",
            "items": [
              {
                "title": "Atlassian Design Guidelines",
                "url": "https://design.atlassian.com/"
              },
              {
                "title": "AtlasKit",
                "url": "https://atlaskit.atlassian.com"
              },
              {
                "title": "Atlassian Marketplace",
                "url": "/platform/marketplace"
              },
              {
                "title": "Cloud app licensing",
                "url": "/platform/marketplace/cloud-app-licensing/"
              }
            ]
          }
        ]
      },
      {
        "title": "Reference",
        "name": "reference",
        "url": "/cloud/bitbucket/about-bitbucket-cloud-rest-api",
        "subcategories": [
          {
            "title": "REST APIs",
            "expandAlways": true,
            "name": "rest",
            "items": [
              {
                "title": "About Bitbucket Cloud REST API",
                "url": "/cloud/bitbucket/about-bitbucket-cloud-rest-api"
              },
              {
                "title": "Bitbucket Cloud REST API v2",
                "url": "https://developer.atlassian.com/bitbucket/api/2/reference/"
              },
              {
                "title": "Bitbucket Cloud REST API v1",
                "url": "https://confluence.atlassian.com/bitbucket/version-1-423626337.html"
              },
              {
                "title": "Bitbucket Cloud REST API scopes",
                "url": "/cloud/bitbucket/bitbucket-cloud-rest-api-scopes"
              }
            ]
          },
          {
            "title": "Modules",
            "expandAlways": true,
            "name": "modules",
            "items": [
              {
                "title": "About Bitbucket modules",
                "url": "/cloud/bitbucket/about-bitbucket-modules"
              }
            ]
          },
          {
            "title": "JavaScript API",
            "expandAlways": true,
            "name": "javascript",
            "items": [
              {
                "title": "About the JavaScript API",
                "url": "/cloud/bitbucket/about-the-javascript-api"
              },
              {
                "title": "AP",
                "url": "/cloud/bitbucket/jsapi/ap"
              },
              {
                "title": "Cookie",
                "url": "/cloud/bitbucket/jsapi/cookie"
              },
              {
                "title": "Dialog",
                "url": "/cloud/bitbucket/jsapi/dialog"
              },
              {
                "title": "Events",
                "url": "/cloud/bitbucket/jsapi/events"
              },
              {
                "title": "History",
                "url": "/cloud/bitbucket/jsapi/history"
              },
              {
                "title": "Inline dialog",
                "url": "/cloud/bitbucket/jsapi/inline-dialog"
              },
              {
                "title": "Messages",
                "url": "/cloud/bitbucket/jsapi/messages"
              },
              {
                "title": "Request",
                "url": "/cloud/bitbucket/jsapi/request"
              }
            ]
          }
        ]
      },
      {
        "name": "help",
        "title": "Get help",
        "url": "/cloud/bitbucket/get-help"
      }
    ]
  }
}