{
  "navigation": {
    "name": "jiracloud",
    "title": "Jira Cloud platform",
    "url": "/cloud/jira/platform/",
    "categories": [
      {
        "title": "Guides",
        "indexLinkTitle": "Latest updates",
        "name": "devguide",
        "url": "/cloud/jira/platform/",
        "subcategories": [
          {
            "title": "Introduction and basics",
            "expandAlways": true,
            "name": "intro",
            "items": [
              {
                "title": "Integrating with Jira Cloud",
                "url": "/cloud/jira/platform/integrating-with-jira-cloud"
              },
              {
                "title": "Getting started",
                "url": "/cloud/jira/platform/getting-started"
              },
              {
                "title": "Extending the user interface",
                "url": "/cloud/jira/platform/extending-the-user-interface"
              },
              {
                "title": "Frameworks and tools",
                "url": "/cloud/jira/platform/frameworks-and-tools"
              }
            ]
          },
          {
            "title": "Security",
            "expandAlways": true,
            "name": "security",
            "items": [
              {
                "title": "Security overview",
                "url": "/cloud/jira/platform/security-overview"
              },
              {
                "title": "Authentication for apps",
                "url": "/cloud/jira/platform/authentication-for-apps"
              },
              {
                "title": "Understanding JWT for apps",
                "url": "/cloud/jira/platform/understanding-jwt"
              },
              {
                "title": "OAuth 2.0 bearer tokens for apps",
                "url": "/cloud/jira/platform/oauth-2-jwt-bearer-token-authorization-grant-type"
              },
              {
                "title": "OAuth for REST APIs",
                "url": "/cloud/jira/platform/jira-rest-api-oauth-authentication"
              },
              {
                "title": "Basic auth for REST APIs",
                "url": "/cloud/jira/platform/jira-rest-api-basic-authentication"
              },
              {
                "title": "Cookie-based auth for REST APIs",
                "url": "/cloud/jira/platform/jira-rest-api-cookie-based-authentication"
              }
            ]
          },
          {
            "title": "Learning",
            "expandAlways": true,
            "name": "guides",
            "items": [
              {
                "title": "Connect cookbook",
                "url": "/cloud/jira/platform/connect-cookbook"
              },
              {
                "title": "Patterns and examples",
                "url": "/cloud/jira/platform/patterns-and-examples/"
              },
              {
                "id": "tutorialsAndGuides",
                "title": "Tutorials and guides",
                "url": "/cloud/jira/platform/tutorials-and-guides/"
              },
              {
                "title": "Storing data without a database",
                "url": "/cloud/jira/platform/storing-data-without-a-database"
              }
            ]
          },
          {
            "title": "Design guidelines",
            "expandAlways": true,
            "name": "design",
            "items": [
            	{
            	"title": "Issue detail view",
                "url": "/cloud/jira/platform/issue-view"
            	},
              {
              "title": "Using multiple glances in the issue view",
                "url": "/cloud/jira/platform/issue-view-using-multiple-glances"
              }
            ]
          }, 	
          {
            "title": "Building blocks",
            "expandAlways": true,
            "name": "blocks",
            "items": [
              {
                "title": "App descriptor",
                "url": "/cloud/jira/platform/app-descriptor"
              },
              {
                "title": "Conditions",
                "url": "/cloud/jira/platform/conditions"
              },
              {
                "title": "Context parameters",
                "url": "/cloud/jira/platform/context-parameters"
              },
              {
                "title": "Entity properties",
                "url": "/cloud/jira/platform/jira-entity-properties"
              },
              {
                "title": "Internationalization",
                "url": "/cloud/jira/platform/internationalization/"
              },
              {
                "title": "Scopes",
                "url": "/cloud/jira/platform/scopes"
              },
              {
                "title": "Webhooks",
                "url": "/cloud/jira/platform/webhooks"
              }
            ]
          },
          {
            "title": "Other considerations",
            "expandAlways": true,
            "name": "other",
            "items": [
              {
                "title": "Atlassian Design Guidelines",
                "url": "https://design.atlassian.com/"
              },
              {
                "title": "AtlasKit",
                "url": "https://atlaskit.atlassian.com/"
              },
              {
                "title": "Atlassian Marketplace",
                "url": "/platform/marketplace/"
              },
              {
                "title": "Cloud app licensing",
                "url": "/platform/marketplace/cloud-app-licensing/"
              }
            ]
          }
        ]
      },
      {
        "title": "Reference",
        "name": "reference",
        "url": "/cloud/jira/platform/rest",
        "subcategories": [
          {
            "title": "REST APIs",
            "name": "rest",
            "items": []
          },
          {
            "title": "Modules",
            "name": "modules",
            "items": [
              {
                "title": "About Jira Platform modules",
                "url": "/cloud/jira/platform/about-jira-modules"
              },
              {
                "title": "Administration UI locations",
                "url": "/cloud/jira/platform/administration-ui-locations"
              },
              {
                "title": "Dashboard item",
                "url": "#"
              },
              {
                "title": "Dialog",
                "url": "#"
              },
              {
                "title": "Entity property",
                "url": "#"
              },
              {
                "title": "Global permission",
                "url": "#"
              },
              {
                "title": "Home container",
                "url": "/cloud/jira/platform/home-container"
              },
              {
                "title": "Issue Content",
                "url": "#"
              },
              {
                "title": "Issue field",
                "url": "#"
              },
              {
                "title": "Issue Glance",
                "url": "#"
              },
              {
                "title": "Issue view UI locations",
                "url": "/cloud/jira/platform/issue-view-ui-locations"
              },
              {
                "title": "New issue view UI locations",
                "url": "/cloud/jira/platform/new-issue-view-ui-locations"
              },
              {
                "title": "Keyboard shortcut",
                "url": "#"
              },
              {
                "title": "Page",
                "url": "#"
              },
              {
                "title": "Project admin tab panel",
                "url": "#"
              },
              {
                "title": "Project Page",
                "url": "#"
              },
              {
                "title": "Project permission",
                "url": "#"
              },
              {
                "title": "Project settings UI locations",
                "url": "/cloud/jira/platform/project-settings-ui-locations"
              },
              {
                "title": "Project sidebar",
                "url": "/cloud/jira/platform/jira-project-sidebar"
              },
              {
                "title": "Report",
                "url": "#"
              },
              {
                "title": "Search request view",
                "url": "#"
              },
              {
                "title": "Tab panel",
                "url": "#"
              },
              {
                "title": "Time Tracking Provider",
                "url": "#"
              },
              {
                "title": "User profile menu",
                "url": "/cloud/jira/platform/user-profile-menu"
              },
              {
                "title": "Web item",
                "url": "#"
              },
              {
                "title": "Web panel",
                "url": "#"
              },
              {
                "title": "Web section",
                "url": "#"
              },
              {
                "title": "Webhook",
                "url": "#"
              },
              {
                "title": "Workflow post function",
                "url": "#"
              }
            ]
          },
          {
            "title": "JavaScript API",
            "name": "jsapi",
            "items": [
              {
                "title": "About the JavaScript API",
                "url": "/cloud/jira/platform/about-the-javascript-api"
              }
            ]
          },
          {
            "title": "App properties API",
            "name": "appapi",
            "items": [
              {
                "title": "App properties API",
                "url": "/cloud/jira/platform/app-properties-api/"
              }
            ]
          }
        ]
      },
      {
        "name": "help",
        "title": "Get help",
        "url": "/cloud/jira/platform/get-help"
      }
    ]
  }
}
