{
  "navigation": {
    "title": "Jira Software Cloud",
    "name": "jswcloud",
    "url": "/cloud/jira/software/",
    "categories": [
      {
        "name": "devguide",
        "title": "Guides",
        "url": "/cloud/jira/software/",
        "subcategories": [
          {
            "name": "intro",
            "title": "Introduction and basics",
            "expandAlways": true,
            "items": [
              {
                "title": "Integrating with Jira Software Cloud",
                "url": "/cloud/jira/software"
              },
              {
                "title": "Getting started",
                "url": "/cloud/jira/software/getting-started"
              },
              {
                "title": "Extending the user interface",
                "url": "/cloud/jira/platform/extending-the-user-interface"
              },
              {
                "title": "Frameworks and tools",
                "url": "/cloud/jira/software/frameworks-and-tools"
              }
            ]
          },
          {
            "name": "security",
            "title": "Security",
            "expandAlways": true,
            "items": [
              {
                "title": "Security overview",
                "url": "/cloud/jira/software/security-overview"
              },
              {
                "title": "Authentication for apps",
                "url": "/cloud/jira/software/authentication-for-apps"
              },
              {
                "title": "Understanding JWT for apps",
                "url": "/cloud/jira/software/understanding-jwt"
              },
              {
                "title": "OAuth 2.0 bearer tokens for apps",
                "url": "/cloud/jira/software/oauth-2-jwt-bearer-token-authorization-grant-type"
              },
              {
                "title": "OAuth for REST APIs",
                "url": "/cloud/jira/software/jira-rest-api-oauth-authentication"
              },
              {
                "title": "Basic auth for REST APIs",
                "url": "/cloud/jira/software/jira-rest-api-basic-authentication"
              },
              {
                "title": "Cookie-based auth for REST APIs",
                "url": "/cloud/jira/software/jira-rest-api-cookie-based-authentication"
              }
            ]
          },
          {
            "name": "guides",
            "title": "Learning",
            "expandAlways": true,
            "items": [
              {
                "title": "Connect cookbook",
                "url": "/cloud/jira/software/connect-cookbook"
              },
              {
                "title": "Patterns and examples",
                "url": "/cloud/jira/software/patterns-and-examples/"
              },
              {
                "title": "Tutorials and guides",
                "id": "tutorialsAndGuides",
                "url": "/cloud/jira/software/tutorials-and-guides/"
              },
              {
                "title": "Storing data without a database",
                "url": "/cloud/jira/software/storing-data-without-a-database"
              }
            ]
          },
          {
            "name": "blocks",
            "title": "Building blocks",
            "expandAlways": true,
            "items": [
              {
                "title": "App descriptor",
                "url": "/cloud/jira/software/app-descriptor"
              },
              {
                "title": "Conditions",
                "url": "/cloud/jira/software/conditions"
              },
              {
                "title": "Context parameters",
                "url": "/cloud/jira/software/context-parameters"
              },
              {
                "title": "Entity properties",
                "url": "/cloud/jira/software/jira-entity-properties"
              },
              {
                "title": "Internationalization",
                "url": "/cloud/jira/software/internationalization/"
              },
              {
                "title": "Scopes",
                "url": "/cloud/jira/software/scopes"
              },
              {
                "title": "Webhooks",
                "url": "/cloud/jira/software/webhooks"
              }
            ]
          },
          {
            "name": "other",
            "expandAlways": true,
            "title": "Other considerations",
            "items": [
              {
                "title": "Atlassian Design Guidelines",
                "url": "https://design.atlassian.com/"
              },
              {
                "title": "AtlasKit",
                "url": "https://atlaskit.atlassian.com/"
              },
              {
                "title": "Atlassian Marketplace",
                "url": "/platform/marketplace/"
              },
              {
                "title": "Cloud app licensing",
                "url": "/platform/marketplace/cloud-app-licensing/"
              }
            ]
          }
        ]
      },
      {
        "name": "reference",
        "title": "Reference",
        "url": "/cloud/jira/software/rest/",
        "subcategories": [
          {
            "name": "rest",
            "title": "REST APIs",
            "items": []
          },
          {
            "name": "modules",
            "title": "Modules",
            "items": [
              {
                "title": "About Jira Software modules",
                "url": "/cloud/jira/software/about-jira-modules"
              },
              {
                "title": "Administation UI locations",
                "url": "/cloud/jira/software/administration-ui-locations"
              },
              {
                "title": "Boards",
                "url": "/cloud/jira/software/boards"
              },
              {
                "title": "Dashboard item",
                "url": "#"
              },
              {
                "title": "Dialog",
                "url": "#"
              },
              {
                "title": "Entity property",
                "url": "#"
              },
              {
                "title": "Global permission",
                "url": "#"
              },
              {
                "title": "Issue field",
                "url": "#"
              },
              {
                "title": "Issue view UI locations",
                "url": "/cloud/jira/software/issue-view-ui-locations"
              },
              {
                "title": "Home container",
                "url": "/cloud/jira/software/home-container"
              },
              {
                "title": "Page",
                "url": "#"
              },
              {
                "title": "Project admin tab panel",
                "url": "#"
              },
              {
                "title": "Project permission",
                "url": "#"
              },
              {
                "title": "Project settings UI locations",
                "url": "/cloud/jira/platform/project-settings-ui-locations"
              },
              {
                "title": "Project sidebar",
                "url": "/cloud/jira/software/jira-project-sidebar"
              }, 
              {
                "title": "Report",
                "url": "#"
              },
              {
                "title": "Search request view",
                "url": "#"
              },
              {
                "title": "Tab panel",
                "url": "#"
              },
              {
                "title": "User profile menu",
                "url": "/cloud/jira/software/extension-points-for-the-end-user-ui"
              },
              {
                "title": "Web item",
                "url": "#"
              },
              {
                "title": "Web panel",
                "url": "#"
              },
              {
                "title": "Web Section",
                "url": "#"
              },
              {
                "title": "Workflow post function",
                "url": "#"
              }
            ]
          },
          {
            "name": "jsapi",
            "title": "JavaScript API",
            "items": [
              {
                "title": "About the JavaScript API",
                "url": "/cloud/jira/software/about-the-javascript-api"
              }
            ]
          },
          {
            "title": "App properties API",
            "name": "appapi",
            "items": [
              {
                "title": "App properties API",
                "url": "/cloud/jira/platform/app-properties-api/"
              }
            ]
          }
        ]
      },
      {
        "title": "Get help",
        "name": "help",
        "url": "/cloud/jira/software/get-help"
      }
    ]
  }
}
